<svg width="62" height="64" viewBox="0 0 62 64" fill="none" xmlns="http://www.w3.org/2000/svg">
<path d="M3.61722 36.75H52.1839C54.1813 36.75 55.8006 35.1047 55.8006 33.075C55.8006 31.0454 54.1813 29.4 52.1839 29.4H50.7765C51.1254 27.9911 52.1718 26.8689 53.5376 26.439C54.8628 26.0488 55.7814 24.8243 55.8006 23.4224V11.655C58.2045 12.1574 59.9308 14.3062 59.9339 16.8V35.7C59.9339 36.2799 60.3965 36.75 60.9672 36.75C61.5379 36.75 62.0006 36.2799 62.0006 35.7V16.8C61.9937 13.1506 59.3548 10.058 55.8006 9.53402V8.40002C55.7943 6.95511 54.8213 5.69985 53.4404 5.35502L52.1136 1.98452C51.6472 0.784174 50.5048 -0.00332454 49.2348 1.53528e-05H43.7664C42.4974 -0.00400433 41.3552 0.781625 40.8875 1.98032L39.601 5.25002H38.2339C37.9239 5.25002 7.84666 5.54402 2.22739 29.6835C0.637282 30.3578 -0.263887 32.0784 0.0737848 33.7952C0.411457 35.5121 1.8942 36.7485 3.61722 36.75ZM42.8074 2.76047C42.9627 2.36068 43.3434 2.09853 43.7664 2.10002H49.2348C49.6577 2.09853 50.0384 2.36068 50.1937 2.76047L51.1743 5.25002H41.8268L42.8074 2.76047ZM38.2339 7.35002H52.7006C53.2713 7.35002 53.7339 7.82012 53.7339 8.40002V23.4224C53.7153 23.905 53.3851 24.3171 52.9238 24.4335C50.689 25.1326 49.0356 27.0559 48.654 29.4H4.43356C10.1417 7.64822 37.9487 7.35002 38.2339 7.35002ZM3.61722 31.5H52.1839C53.0399 31.5 53.7339 32.2052 53.7339 33.075C53.7339 33.9449 53.0399 34.65 52.1839 34.65H3.61722C2.76118 34.65 2.06722 33.9449 2.06722 33.075C2.06722 32.2052 2.76118 31.5 3.61722 31.5Z" fill="#3B5998"/>
<path d="M8.37 27.2005C8.61812 27.3195 8.90265 27.3334 9.16085 27.239C9.41904 27.1447 9.62971 26.9499 9.7464 26.6975C11.9535 22.1146 15.6013 18.4102 20.1128 16.1702C20.6184 15.9012 20.8137 15.2665 20.5489 14.7527C20.2841 14.239 19.6595 14.0406 19.1539 14.3096C14.2425 16.7603 10.2751 20.8045 7.87917 25.8029C7.63535 26.3266 7.85499 26.952 8.37 27.2005Z" fill="#3B5998"/>
<path d="M29.9665 23.1H47.5332C49.2453 23.1 50.6332 21.6897 50.6332 19.95V14.7C50.6332 12.9604 49.2453 11.55 47.5332 11.55H36.2854C35.5698 11.5506 34.8763 11.8021 34.322 12.2619L28.0063 17.5119C26.9925 18.3547 26.6094 19.754 27.0491 21.0077C27.4889 22.2614 28.6567 23.0989 29.9665 23.1ZM36.1665 21L37.4066 19.32C37.6017 19.0557 37.908 18.9 38.2332 18.9H42.3666C42.6918 18.9 42.9981 19.0557 43.1932 19.32L44.4332 21H36.1665ZM29.3155 19.1373L35.6302 13.8873C35.8151 13.7337 36.0466 13.6499 36.2854 13.65H47.5332C48.1039 13.65 48.5666 14.1202 48.5666 14.7V19.95C48.5666 20.5299 48.1039 21 47.5332 21H47.0166L44.8466 18.0601C44.2596 17.2687 43.3418 16.8023 42.3666 16.8H38.2332C37.2579 16.8017 36.3397 17.2682 35.7532 18.0601L33.5832 21H29.9665C29.5296 21.0004 29.1397 20.7215 28.9926 20.3034C28.8456 19.8853 28.9732 19.4185 29.3114 19.1373H29.3155Z" fill="#3B5998"/>
<path d="M22.7334 14.7002C23.3041 14.7002 23.7667 14.2301 23.7667 13.6502C23.7667 13.0703 23.3041 12.6002 22.7334 12.6002C22.1627 12.6002 21.7001 13.0703 21.7001 13.6502C21.7001 14.2301 22.1627 14.7002 22.7334 14.7002Z" fill="#3B5998"/>
<path d="M7.23333 56.7C7.90811 56.7008 8.57959 56.6043 9.22767 56.4134C11.2944 60.4236 16.1235 62.0388 20.1304 60.06C21.8831 61.939 24.3189 63.0033 26.8667 63.0033C29.4145 63.0033 31.8503 61.939 33.603 60.06C37.609 62.0393 42.4378 60.4256 44.5057 56.4165C45.1539 56.6064 45.8254 56.7019 46.5 56.7C50.4949 56.7 53.7333 53.4093 53.7333 49.35C53.7333 45.2907 50.4949 42 46.5 42C45.9293 42 45.4667 42.4701 45.4667 43.05C45.4667 43.6299 45.9293 44.1 46.5 44.1C48.6102 44.0964 50.5104 45.3971 51.3 47.3856C52.0896 49.374 51.6098 51.6506 50.088 53.136C48.5662 54.6215 46.3084 55.0173 44.3848 54.1359C44.1247 54.017 43.8278 54.0126 43.5644 54.1237C43.301 54.2349 43.0946 54.4517 42.9939 54.7229C42.3421 56.4901 40.9428 57.8659 39.1831 58.4697C37.4234 59.0735 35.4898 58.8412 33.9171 57.8372C33.4694 57.5515 32.8818 57.6553 32.5552 58.0776C31.1882 59.8588 29.0895 60.9001 26.8667 60.9001C24.6438 60.9001 22.5451 59.8588 21.1782 58.0776C20.8515 57.6553 20.2639 57.5515 19.8162 57.8372C18.2436 58.8412 16.3099 59.0735 14.5502 58.4697C12.7905 57.8659 11.3912 56.4901 10.7394 54.7229C10.6388 54.4517 10.4323 54.2349 10.1689 54.1237C9.90553 54.0126 9.60865 54.017 9.34857 54.1359C7.42492 55.0173 5.16709 54.6215 3.64533 53.136C2.12357 51.6506 1.64375 49.374 2.43332 47.3856C3.2229 45.3971 5.12316 44.0964 7.23333 44.1C7.80403 44.1 8.26667 43.6299 8.26667 43.05C8.26667 42.4701 7.80403 42 7.23333 42C3.23847 42 0 45.2907 0 49.35C0 53.4093 3.23847 56.7 7.23333 56.7Z" fill="#3B5998"/>
<path d="M19.3997 39.2352C19.0384 38.7864 18.3875 38.7201 17.9458 39.0871L6.57914 48.5371C6.28686 48.7725 6.14208 49.1497 6.20032 49.524C6.25857 49.8983 6.51079 50.2117 6.86028 50.344C7.20977 50.4763 7.60229 50.4069 7.88734 50.1625L19.254 40.7125C19.6957 40.3454 19.7609 39.684 19.3997 39.2352Z" fill="#3B5998"/>
<path d="M46.5001 50.4001C46.9371 50.4004 47.327 50.1215 47.474 49.7034C47.6211 49.2854 47.4934 48.8185 47.1553 48.5374L35.7886 39.0874C35.3462 38.7311 34.7043 38.8015 34.3469 39.2455C33.9895 39.6896 34.0489 40.3429 34.4804 40.7128L45.8471 50.1628C46.0311 50.3164 46.2619 50.4003 46.5001 50.4001Z" fill="#3B5998"/>
<path d="M25.8334 39.9001V53.5501C25.8334 54.13 26.296 54.6001 26.8667 54.6001C27.4374 54.6001 27.9 54.13 27.9 53.5501V39.9001C27.9 39.3202 27.4374 38.8501 26.8667 38.8501C26.296 38.8501 25.8334 39.3202 25.8334 39.9001Z" fill="#3B5998"/>
<path d="M16.0011 54.4499C16.4902 54.7484 17.1249 54.5877 17.4188 54.0908L20.5188 48.8408C20.717 48.5189 20.7288 48.1135 20.5497 47.7803C20.3705 47.4471 20.0283 47.2382 19.6547 47.2338C19.2811 47.2295 18.9343 47.4304 18.7477 47.7593L15.6477 53.0093C15.3539 53.5063 15.5121 54.1512 16.0011 54.4499Z" fill="#3B5998"/>
<path d="M33.5677 47.4001C33.0787 47.6988 32.9205 48.3437 33.2143 48.8407L36.3143 54.0907C36.501 54.4196 36.8478 54.6205 37.2214 54.6161C37.595 54.6117 37.9372 54.4028 38.1163 54.0696C38.2955 53.7365 38.2837 53.331 38.0855 53.0092L34.9855 47.7592C34.6915 47.2623 34.0568 47.1015 33.5677 47.4001Z" fill="#3B5998"/>
</svg>
